-----BEGIN PGP MESSAGE-----

hMIDE466KzPtyE4SBCMEAamS6kiGRDwualZEDO60OxTL9kSa7UEyu+oTMwlsJIvN
mWEFupa5tu4NaJvP7xgF2QGDco5BjRjyO9oL1OsL3s+rAT2m499RofyUW1H6Navl
s7DXS/mq2HvZ+M6d4AacFhObzgjo+wX0rNrpMHF+RhK/gW+0VnuO0LvhZolG2Zuy
mvfpMM+FZ5oNDZw2VgxfA+zbx8XFiYs1LS8HiWV3cDXl70c46XgvRPEpUsvVewxR
zObptdJIAS/afvidUm3ZxJKZQrqpk8TGlmB2hhabeMqUHWhVUy9KY4eIXbKZT53z
jJup+m0xw9CmT0RWubG8OUwV4WwMpArAmUCqXAmC
=TMDL
-----END PGP MESSAGE-----

